Lab4
…
Question 2:

report_03_13_2020 %>% 
  group_by(Country_Region) %>% 
  summarise(totaldeaths = sum(Deaths))

## `summarise()` ungrouping output (override with `.groups` argument)

## # A tibble: 125 x 2
##    Country_Region      totaldeaths
##    <chr>                     <dbl>
##  1 Afghanistan                   0
##  2 Albania                       1
##  3 Algeria                       2
##  4 Andorra                       0
##  5 Antigua and Barbuda           0
##  6 Argentina                     2
##  7 Armenia                       0
##  8 Aruba                         0
##  9 Australia                     3
## 10 Austria                       1
## #  with 115 more rows

report_09_13_2020 %>% 
  group_by(Country_Region) %>% 
  summarise(totaldeaths = sum(Deaths))

## `summarise()` ungrouping output (override with `.groups` argument)

## # A tibble: 188 x 2
##    Country_Region      totaldeaths
##    <chr>                     <dbl>
##  1 Afghanistan                1420
##  2 Albania                     334
##  3 Algeria                    1612
##  4 Andorra                      53
##  5 Angola                      134
##  6 Antigua and Barbuda           3
##  7 Argentina                 11352
##  8 Armenia                     916
##  9 Australia                   816
## 10 Austria                     756
## #  with 178 more rows

Question 3: .CONFIRMED CASES PER U.S STATE USE

03/13/2020

filter(report_03_13_2020, Country_Region == "US") %>% 
  group_by(Province_State) %>% 
  summarise(totalconfirmed = sum(Confirmed))

## `summarise()` ungrouping output (override with `.groups` argument)

## # A tibble: 53 x 2
##    Province_State       totalconfirmed
##    <chr>                         <dbl>
##  1 Alabama                           5
##  2 Alaska                            1
##  3 Arizona                           9
##  4 Arkansas                          6
##  5 California                      282
##  6 Colorado                         49
##  7 Connecticut                      11
##  8 Delaware                          4
##  9 Diamond Princess                 46
## 10 District of Columbia             10
## #  with 43 more rows

09/13/2020

filter(report_09_13_2020, Country_Region == "US") %>% 
group_by(Province_State) %>% 
summarise(totalconfirmed = sum(Confirmed))

## `summarise()` ungrouping output (override with `.groups` argument)

## # A tibble: 58 x 2
##    Province_State       totalconfirmed
##    <chr>                         <dbl>
##  1 Alabama                      138755
##  2 Alaska                         6268
##  3 Arizona                      208512
##  4 Arkansas                      70219
##  5 California                   761728
##  6 Colorado                      61293
##  7 Connecticut                   54326
##  8 Delaware                      18849
##  9 Diamond Princess                 49
## 10 District of Columbia          14592
## #  with 48 more rows
…
